<svg width="65" height="19" viewBox="0 0 65 19" fill="none" xmlns="http://www.w3.org/2000/svg">
<path d="M17.626 0.499999V18H14.751V5.525L9.42598 14.325H9.07598L3.75098 5.5V18H0.875977V0.499999H3.97598L9.25098 9.25L14.551 0.499999H17.626ZM23.9902 15.25H31.7402V18H21.1152V0.499999H31.6152V3.25H23.9902V7.8H30.9902V10.525H23.9902V15.25ZM44.8721 0.499999H47.7471V18H45.4971L37.2471 6.125V18H34.3721V0.499999H36.6221L44.8721 12.375V0.499999ZM62.4672 16.675C61.2339 17.775 59.6422 18.325 57.6922 18.325C55.7422 18.325 54.1505 17.775 52.9172 16.675C51.6839 15.5583 51.0672 14.0667 51.0672 12.2V0.499999H53.9422V12.025C53.9422 13.0917 54.2505 13.9417 54.8672 14.575C55.5005 15.2083 56.4422 15.525 57.6922 15.525C58.9422 15.525 59.8755 15.2083 60.4922 14.575C61.1255 13.9417 61.4422 13.0917 61.4422 12.025V0.499999H64.3172V12.2C64.3172 14.0667 63.7005 15.5583 62.4672 16.675Z" fill="#252525"/>
</svg>
